[
    {
        "client_env_id": "compro-qa",
        "env_type": "qa",
        "env_filestore": {
            "type": "s3",
            "base_path": "https://config-qa.engage.comprodls.com/compro"
        }
    },
    {
        "client_env_id": "compro-stage",
        "env_type": "stage",
        "env_filestore": {
            "type": "s3",
            "base_path": "https://config-stg.engage.comprodls.com/compro"
        }
    },
    {
        "client_env_id": "compro-prod",
        "env_type": "prod",
        "env_filestore": {
            "type": "s3",
            "base_path": "https://config.engage.comprodls.com/compro"
        }
    }
]